{
    "uid": "BD_PY_FLCON_REC",
    "TRN_EVL_ID": "IDF",
    "NETWORK": "COMMERCIAL",
    "KSATs": [
        [
            "S0049",
            "3"
        ]
    ],
    "course": "IDF",
    "module": "Python",
    "topic": "functions",
    "subject": "recursion",
    "lecture_time": 0,
    "perf_demo_time": 0,
    "references": [],
    "lesson_objectives": [],
    "performance_objectives": [],
    "workroles": [
        "basic-dev"
    ]
}