{
	"name": "CYT Admin MarkDown Book",
	"dockerComposeFile": ["../docker-compose.yml"],

	"service": "mdbook",
	"workspaceFolder": "/workspace/mdbook-dev",
	"shutdownAction": "stopCompose",

	"extensions": [
		"gruntfuggly.todo-tree",
		"streetsidesoftware.code-spell-checker"
	],

	"remoteUser": "mdbook"
}
