{
    "uid": "BD_PY_ALGO",
    "TRN_EVL_ID": "IDF",
    "NETWORK": "COMMERCIAL",
    "KSATs": [
        [
            "K0045",
            "B"
        ],
        [
            "K0046",
            "B"
        ],
        [
            "K0047",
            "B"
        ],
        [
            "K0048",
            "B"
        ],
        [
            "K0049",
            "B"
        ],
        [
            "K0050",
            "B"
        ],
        [
            "K0051",
            "B"
        ],
        [
            "K0052",
            "B"
        ],
        [
            "K0053",
            "B"
        ]
    ],
    "course": "IDF",
    "module": "Python",
    "topic": "Algorithms",
    "subject": "Algorithms",
    "lecture_time": 0,
    "perf_demo_time": 0,
    "references": [],
    "lesson_objectives": [
        {
            "description": "",
            "proficiency_level": "",
            "KSATs": [],
            "MSBs": []
        }
    ],
    "performance_objectives": [
        {
            "description": "",
            "KSATs": []
        }
    ],
    "workroles": [
        "basic-dev"
    ]
}