{
    "uid": "BD_PY_ALGO_INTRO",
    "TRN_EVL_ID": "IDF",
    "NETWORK": "COMMERCIAL",
    "KSATs": [
        ["A0154","3"],
        ["A0173","3"],
        ["A0175","3"],
        ["A0176","3"],
        ["A0177","3"],
        ["A0178","2"],
        ["A0179","3"],
        ["A0180","3"],
        ["A0181","3"],
        ["A0186","3"],
        ["A0187","3"],
        ["A0188","3"],
        ["A0190","3"],
        ["A0191","3"],
        ["A0192","3"],
        ["A0193","3"],
        ["A0194","3"],
        ["A0195","3"],
        ["A0196","3"]
    ],
    "course": "IDF",
    "module": "Python",
    "topic": "Algorithms",
    "subject": "IntroToAlgorithms",
    "lecture_time": 0,
    "perf_demo_time": 0,
    "references": [],
    "lesson_objectives": [
        
        {
            "description": "",
            "proficiency_level": "",
            "KSATs": [],
            "MSBs": []
        }
    ],
    "performance_objectives": [
        {
            "description": "",
            "KSATs": []
        }
    ],
    "workroles": [
        "basic-dev"
    ]
}
