{
    "uid": "BD_PY_FLCON_WHILE",
    "TRN_EVL_ID": "IDF",
    "NETWORK": "COMMERCIAL",
    "KSATs": [
        [
            "S0081",
            "3"
        ],
        [
            "K0107",
            "B"
        ]
    ],
    "course": "IDF",
    "module": "Python",
    "topic": "flow_control",
    "subject": "while_loops",
    "lecture_time": 20,
    "perf_demo_time": 60,
    "references": [],
    "lesson_objectives": [
        {
            "description": "Comprehend While loops in Python",
            "proficiency_level": "B",
            "KSATs": [
                "K0107"
            ],
            "MSBs": [
                {
                    "description": "Describe While loop syntax",
                    "proficiency_level": "B",
                    "KSATs": [
                        "K0107"
                    ]
                },
                {
                    "description": "Describe using the while loop to repeat code execution.",
                    "proficiency_level": "B",
                    "KSATs": [
                        "K0107"
                    ]
                },
                {
                    "description": "Given Python Code, predict the outcome of a while loop.",
                    "proficiency_level": "B",
                    "KSATs": [
                        "K0107"
                    ]
                }
            ]
        }
    ],
    "performance_objectives": [
        {
            "description": "Use a while loop to repeat code execution a specified number of times",
            "KSATs": [
                "S0081"
            ]
        }
    ],
    "workroles": [
        "basic-dev"
    ]
}